Herringmania.utf8
…
## # A tibble: 1 x 1
##       n
##   <int>
## 1     0

Teraz ju mamy kompletne dane, bez pustych wartoci. Moemy zatem kontynuaowa przetwarzanie.

Zauwaylimy, e wikszo danych w ramach jednego owiska s identyczne, wic pogrupowalimy je po tych danych:

groupedData <- completeData %>% group_by(cfin1, cfin2, chel1, chel2, lcop1, lcop2, fbar, recr, cumf, totaln, sst, sal, nao)
groupedData

## # A tibble: 52,573 x 16
## # Groups:   cfin1, cfin2, chel1, chel2, lcop1, lcop2, fbar, recr, cumf, totaln,
## #   sst, sal, nao [557]
##        X length cfin1 cfin2 chel1 chel2 lcop1 lcop2  fbar   recr  cumf totaln
##    <int>  <dbl> <fct> <fct> <fct> <fct> <fct> <fct> <dbl>  <int> <dbl>  <dbl>
##  1     0   23   0.02 0.27 2.46 21.4 2.54 26.3 0.356 482831 0.306 2.67e5
##  2     1   22.5 0.02 0.27 2.46 21.4 2.54 26.3 0.356 482831 0.306 2.67e5
##  3     2   25   0.02 0.27 2.46 21.4 2.54 26.3 0.356 482831 0.306 2.67e5
##  4     3   25.5 0.02 0.27 2.46 21.4 2.54 26.3 0.356 482831 0.306 2.67e5
##  5     4   24   0.02 0.27 2.46 21.4 2.54 26.3 0.356 482831 0.306 2.67e5
##  6     5   22   0.02 0.27 2.46 21.4 2.54 26.3 0.356 482831 0.306 2.67e5
##  7     6   24   0.02 0.27 2.46 21.4 2.54 26.3 0.356 482831 0.306 2.67e5
##  8     7   23.5 0.02 0.27 2.46 21.4 2.54 26.3 0.356 482831 0.306 2.67e5
##  9     8   22.5 0.02 0.27 2.46 21.4 2.54 26.3 0.356 482831 0.306 2.67e5
## 10     9   22.5 0.02 0.27 2.46 21.4 2.54 26.3 0.356 482831 0.306 2.67e5
## #  with 52,563 more rows, and 4 more variables: sst <fct>, sal <dbl>,
## #   xmonth <int>, nao <dbl>
…
